com.minres.scviewer.database.test/inputs/my_db.vcd
$date
     Jan 12, 2015       16:55:31
$end

$version
 SystemC 2.3.1-Accellera --- Dec 23 2014 19:28:55
$end

$timescale
     1 ps
$end

$scope module SystemC $end
$var wire    8  aaaaa  duv.bus_data [7:0]  $end
$var wire    1  aaaab  duv.data_rdy       $end
$var wire    8  aaaac  duv.bus_addr [7:0]  $end
$var wire    1  aaaad  duv.addr_ack       $end
$var wire    1  aaaae  duv.addr_req       $end
$var wire    1  aaaaf  duv.rw       $end
$var wire    1  aaaag  duv.clk       $end
$var wire    8  aaaah  tr.bus_data [7:0]  $end
$var wire    1  aaaai  tr.data_rdy       $end
$var wire    8  aaaaj  tr.bus_addr [7:0]  $end
$var wire    1  aaaak  tr.addr_ack       $end
$var wire    1  aaaal  tr.addr_req       $end
$var wire    1  aaaam  tr.rw       $end
$var wire    1  aaaan  tr.clk       $end
$upscope $end
$enddefinitions  $end

$comment
All initial values are dumped below at time 0 sec = 0 timescale units.
$end

$dumpvars
b0 aaaaa
0aaaab
b0 aaaac
0aaaad
1aaaae
0aaaaf
1aaaag
b0 aaaah
0aaaai
b0 aaaaj
0aaaak
1aaaal
0aaaam
1aaaan
$end

#10000
0aaaag
0aaaan

#20000
1aaaag
1aaaan

#30000
0aaaag
0aaaan

#40000
1aaaag
1aaaan

#50000
0aaaag
0aaaan

#60000
1aaaag
1aaaan

#70000
0aaaag
0aaaan

#80000
1aaaag
1aaaan

#90000
0aaaag
0aaaan

#100000
1aaaag
1aaaan

#110000
0aaaag
0aaaan

#120000
1aaaag
1aaaan

#130000
0aaaag
0aaaan

#140000
1aaaag
1aaaan

#150000
0aaaag
0aaaan

#160000
1aaaad
1aaaag
1aaaak
1aaaan

#170000
0aaaae
0aaaag
0aaaal
0aaaan

#180000
0aaaad
1aaaag
0aaaak
1aaaan

#190000
0aaaag
0aaaan

#200000
1aaaae
1aaaag
1aaaal
1aaaan

#210000
0aaaag
0aaaan

#220000
1aaaag
1aaaan

#230000
0aaaag
0aaaan

#240000
1aaaag
1aaaan

#250000
0aaaag
0aaaan

#260000
1aaaag
1aaaan

#270000
0aaaag
0aaaan

#280000
1aaaad
1aaaag
1aaaak
1aaaan

#290000
0aaaae
0aaaag
0aaaal
0aaaan

#300000
0aaaad
1aaaag
0aaaak
1aaaan

#310000
0aaaag
0aaaan

#320000
1aaaag
1aaaan

#330000
0aaaag
0aaaan

#340000
1aaaag
1aaaan

#350000
0aaaag
0aaaan

#360000
1aaaag
1aaaan

#370000
0aaaag
0aaaan

#380000
1aaaag
1aaaan

#390000
0aaaag
0aaaan

#400000
1aaaab
1aaaag
1aaaai
1aaaan

#410000
0aaaag
0aaaan

#420000
0aaaab
1aaaag
0aaaai
1aaaan

#430000
0aaaag
0aaaan

#440000
b1 aaaac
1aaaae
1aaaag
b1 aaaaj
1aaaal
1aaaan

#450000
0aaaag
0aaaan

#460000
1aaaad
1aaaag
1aaaak
1aaaan

#470000
0aaaae
0aaaag
0aaaal
0aaaan

#480000
0aaaad
1aaaag
0aaaak
1aaaan

#490000
0aaaag
0aaaan

#500000
1aaaag
1aaaan

#510000
0aaaag
0aaaan

#520000
1aaaag
1aaaan

#530000
0aaaag
0aaaan

#540000
1aaaag
1aaaan

#550000
0aaaag
0aaaan

#560000
1aaaag
1aaaan

#570000
0aaaag
0aaaan

#580000
1aaaag
1aaaan

#590000
0aaaag
0aaaan

#600000
1aaaab
1aaaag
1aaaai
1aaaan

#610000
0aaaag
0aaaan

#620000
0aaaab
1aaaag
0aaaai
1aaaan

#630000
0aaaag
0aaaan

#640000
1aaaae
1aaaag
1aaaal
1aaaan

#650000
0aaaag
0aaaan

#660000
1aaaag
1aaaan

#670000
0aaaag
0aaaan

#680000
b1 aaaaa
1aaaab
1aaaag
b1 aaaah
1aaaai
1aaaan

#690000
0aaaag
0aaaan

#700000
0aaaab
1aaaag
0aaaai
1aaaan

#710000
0aaaag
0aaaan

#720000
1aaaag
1aaaan

#730000
0aaaag
0aaaan

#740000
1aaaad
1aaaag
1aaaak
1aaaan

#750000
0aaaae
0aaaag
0aaaal
0aaaan

#760000
0aaaad
1aaaag
0aaaak
1aaaan

#770000
0aaaag
0aaaan

#780000
b10 aaaac
1aaaae
1aaaag
b10 aaaaj
1aaaal
1aaaan

#790000
0aaaag
0aaaan

#800000
1aaaag
1aaaan

#810000
0aaaag
0aaaan

#820000
1aaaag
1aaaan

#830000
0aaaag
0aaaan

#840000
1aaaag
1aaaan

#850000
0aaaag
0aaaan

#860000
1aaaad
1aaaag
1aaaak
1aaaan

#870000
0aaaae
0aaaag
0aaaal
0aaaan

#880000
0aaaad
1aaaag
0aaaak
1aaaan

#890000
0aaaag
0aaaan

#900000
1aaaag
1aaaan

#910000
0aaaag
0aaaan

#920000
1aaaag
1aaaan

#930000
0aaaag
0aaaan

#940000
1aaaag
1aaaan

#950000
0aaaag
0aaaan

#960000
1aaaab
1aaaag
1aaaai
1aaaan

#970000
0aaaag
0aaaan

#980000
0aaaab
1aaaag
0aaaai
1aaaan

#990000
0aaaag
0aaaan

#1000000
1aaaae
1aaaag
1aaaal
1aaaan

#1010000
0aaaag
0aaaan

#1020000
1aaaad
1aaaag
1aaaak
1aaaan

#1030000
0aaaae
0aaaag
0aaaal
0aaaan

#1040000
0aaaad
1aaaag
0aaaak
1aaaan

#1050000
0aaaag
0aaaan

#1060000
1aaaag
1aaaan

#1070000
0aaaag
0aaaan

#1080000
1aaaag
1aaaan

#1090000
0aaaag
0aaaan

#1100000
1aaaag
1aaaan

#1110000
0aaaag
0aaaan

#1120000
1aaaag
1aaaan

#1130000
0aaaag
0aaaan

#1140000
1aaaag
1aaaan

#1150000
0aaaag
0aaaan

#1160000
1aaaag
1aaaan

#1170000
0aaaag
0aaaan

#1180000
b10 aaaaa
1aaaab
1aaaag
b10 aaaah
1aaaai
1aaaan

#1190000
0aaaag
0aaaan

#1200000
0aaaab
1aaaag
0aaaai
1aaaan

#1210000
0aaaag
0aaaan

#1220000
b1111000 aaaac
1aaaae
1aaaag
b1111000 aaaaj
1aaaal
1aaaan

#1230000
0aaaag
0aaaan

#1240000
1aaaag
1aaaan

#1250000
0aaaag
0aaaan

#1260000
1aaaag
1aaaan

#1270000
0aaaag
0aaaan

#1280000
1aaaad
1aaaag
1aaaak
1aaaan

#1290000
0aaaae
0aaaag
0aaaal
0aaaan

#1300000
0aaaad
1aaaag
0aaaak
1aaaan

#1310000
0aaaag
0aaaan

#1320000
1aaaab
1aaaag
1aaaai
1aaaan

#1330000
0aaaag
0aaaan

#1340000
0aaaab
1aaaag
0aaaai
1aaaan

#1350000
0aaaag
0aaaan

#1360000
b1011 aaaac
1aaaae
1aaaag
b1011 aaaaj
1aaaal
1aaaan

#1370000
0aaaag
0aaaan

#1380000
1aaaag
1aaaan

#1390000
0aaaag
0aaaan

#1400000
b1111000 aaaaa
1aaaab
1aaaag
b1111000 aaaah
1aaaai
1aaaan

#1410000
0aaaag
0aaaan

#1420000
0aaaab
1aaaag
0aaaai
1aaaan

#1430000
0aaaag
0aaaan

#1440000
1aaaag
1aaaan

#1450000
0aaaag
0aaaan

#1460000
1aaaag
1aaaan

#1470000
0aaaag
0aaaan

#1480000
1aaaag
1aaaan

#1490000
0aaaag
0aaaan

#1500000
1aaaag
1aaaan

#1510000
0aaaag
0aaaan

#1520000
1aaaad
1aaaag
1aaaak
1aaaan

#1530000
0aaaae
0aaaag
0aaaal
0aaaan

#1540000
0aaaad
1aaaag
0aaaak
1aaaan

#1550000
0aaaag
0aaaan

#1560000
b10010011 aaaac
1aaaae
1aaaag
b10010011 aaaaj
1aaaal
1aaaan

#1570000
0aaaag
0aaaan

#1580000
1aaaag
1aaaan

#1590000
0aaaag
0aaaan

#1600000
1aaaag
1aaaan

#1610000
0aaaag
0aaaan

#1620000
1aaaag
1aaaan

#1630000
0aaaag
0aaaan

#1640000
b1011 aaaaa
1aaaab
1aaaag
b1011 aaaah
1aaaai
1aaaan

#1650000
0aaaag
0aaaan

#1660000
0aaaab
1aaaag
0aaaai
1aaaan

#1670000
0aaaag
0aaaan

#1680000
1aaaag
1aaaan

#1690000
0aaaag
0aaaan

#1700000
1aaaag
1aaaan

#1710000
0aaaag
0aaaan

#1720000
1aaaad
1aaaag
1aaaak
1aaaan

#1730000
0aaaae
0aaaag
0aaaal
0aaaan

#1740000
0aaaad
1aaaag
0aaaak
1aaaan

#1750000
0aaaag
0aaaan

#1760000
b1100011 aaaac
1aaaae
1aaaag
b1100011 aaaaj
1aaaal
1aaaan

#1770000
0aaaag
0aaaan

#1780000
1aaaad
1aaaag
1aaaak
1aaaan

#1790000
0aaaae
0aaaag
0aaaal
0aaaan

#1800000
0aaaad
1aaaag
0aaaak
1aaaan

#1810000
0aaaag
0aaaan

#1820000
1aaaag
1aaaan

#1830000
0aaaag
0aaaan

#1840000
1aaaag
1aaaan

#1850000
0aaaag
0aaaan

#1860000
1aaaag
1aaaan

#1870000
0aaaag
0aaaan

#1880000
1aaaag
1aaaan

#1890000
0aaaag
0aaaan

#1900000
1aaaag
1aaaan

#1910000
0aaaag
0aaaan

#1920000
1aaaag
1aaaan

#1930000
0aaaag
0aaaan

#1940000
1aaaag
1aaaan

#1950000
0aaaag
0aaaan

#1960000
b10010011 aaaaa
1aaaab
1aaaag
b10010011 aaaah
1aaaai
1aaaan

#1970000
0aaaag
0aaaan

#1980000
0aaaab
1aaaag
0aaaai
1aaaan

#1990000
0aaaag
0aaaan

#2000000
b110111 aaaac
1aaaae
1aaaag
b110111 aaaaj
1aaaal
1aaaan

#2010000
0aaaag
0aaaan

#2020000
1aaaag
1aaaan

#2030000
0aaaag
0aaaan

#2040000
b1100011 aaaaa
1aaaab
1aaaag
b1100011 aaaah
1aaaai
1aaaan

#2050000
0aaaag
0aaaan

#2060000
0aaaab
1aaaag
0aaaai
1aaaan

#2070000
0aaaag
0aaaan

#2080000
1aaaad
1aaaag
1aaaak
1aaaan

#2090000
0aaaae
0aaaag
0aaaal
0aaaan

#2100000
0aaaad
1aaaag
0aaaak
1aaaan

#2110000
0aaaag
0aaaan

#2120000
b1111110 aaaac
1aaaae
1aaaag
b1111110 aaaaj
1aaaal
1aaaan

#2130000
0aaaag
0aaaan

#2140000
1aaaag
1aaaan

#2150000
0aaaag
0aaaan

#2160000
1aaaag
1aaaan

#2170000
0aaaag
0aaaan

#2180000
1aaaag
1aaaan

#2190000
0aaaag
0aaaan

#2200000
1aaaag
1aaaan

#2210000
0aaaag
0aaaan

#2220000
1aaaag
1aaaan

#2230000
0aaaag
0aaaan

#2240000
1aaaag
1aaaan

#2250000
0aaaag
0aaaan

#2260000
1aaaag
1aaaan

#2270000
0aaaag
0aaaan

#2280000
1aaaag
1aaaan

#2290000
0aaaag
0aaaan

#2300000
1aaaag
1aaaan

#2310000
0aaaag
0aaaan

#2320000
b110111 aaaaa
1aaaab
1aaaad
1aaaag
b110111 aaaah
1aaaai
1aaaak
1aaaan

#2330000
0aaaae
0aaaag
0aaaal
0aaaan

#2340000
0aaaab
0aaaad
1aaaag
0aaaai
0aaaak
1aaaan

#2350000
0aaaag
0aaaan

#2360000
b11001100 aaaac
1aaaae
1aaaaf
1aaaag
b11001100 aaaaj
1aaaal
1aaaam
1aaaan

#2370000
0aaaag
0aaaan

#2380000
1aaaad
1aaaag
1aaaak
1aaaan

#2390000
0aaaae
0aaaag
0aaaal
0aaaan

#2400000
0aaaad
1aaaag
0aaaak
1aaaan

#2410000
0aaaag
0aaaan

#2420000
1aaaag
1aaaan

#2430000
0aaaag
0aaaan

#2440000
1aaaag
1aaaan

#2450000
0aaaag
0aaaan

#2460000
1aaaag
1aaaan

#2470000
0aaaag
0aaaan

#2480000
1aaaag
1aaaan

#2490000
0aaaag
0aaaan

#2500000
1aaaag
1aaaan

#2510000
0aaaag
0aaaan

#2520000
b1111110 aaaaa
1aaaab
1aaaag
b1111110 aaaah
1aaaai
1aaaan

#2530000
0aaaag
0aaaan

#2540000
b11010011 aaaaa
0aaaab
1aaaag
b11010011 aaaah
0aaaai
1aaaan

#2550000
0aaaag
0aaaan

#2560000
b11110010 aaaac
1aaaae
1aaaag
b11110010 aaaaj
1aaaal
1aaaan

#2570000
0aaaag
0aaaan

#2580000
1aaaag
1aaaan

#2590000
0aaaag
0aaaan

#2600000
1aaaag
1aaaan

#2610000
0aaaag
0aaaan

#2620000
1aaaab
1aaaag
1aaaai
1aaaan

#2630000
0aaaag
0aaaan

#2640000
0aaaab
1aaaag
0aaaai
1aaaan

#2650000
0aaaag
0aaaan

#2660000
1aaaag
1aaaan

#2670000
0aaaag
0aaaan

#2680000
1aaaag
1aaaan

#2690000
0aaaag
0aaaan

#2700000
1aaaag
1aaaan

#2710000
0aaaag
0aaaan

#2720000
1aaaag
1aaaan

#2730000
0aaaag
0aaaan

#2740000
1aaaag
1aaaan

#2750000
0aaaag
0aaaan

#2760000
1aaaad
1aaaag
1aaaak
1aaaan

#2770000
0aaaae
0aaaag
0aaaal
0aaaan

#2780000
b111010 aaaaa
0aaaad
1aaaag
b111010 aaaah
0aaaak
1aaaan

#2790000
0aaaag
0aaaan

#2800000
b10000111 aaaac
1aaaae
1aaaag
b10000111 aaaaj
1aaaal
1aaaan

#2810000
0aaaag
0aaaan

#2820000
1aaaag
1aaaan

#2830000
0aaaag
0aaaan

#2840000
1aaaag
1aaaan

#2850000
0aaaag
0aaaan

#2860000
1aaaag
1aaaan

#2870000
0aaaag
0aaaan

#2880000
1aaaag
1aaaan

#2890000
0aaaag
0aaaan

#2900000
1aaaag
1aaaan

#2910000
0aaaag
0aaaan

#2920000
1aaaag
1aaaan

#2930000
0aaaag
0aaaan

#2940000
1aaaad
1aaaag
1aaaak
1aaaan

#2950000
0aaaae
0aaaag
0aaaal
0aaaan

#2960000
0aaaad
1aaaag
0aaaak
1aaaan

#2970000
0aaaag
0aaaan

#2980000
1aaaab
1aaaag
1aaaai
1aaaan

#2990000
0aaaag
0aaaan

#3000000
b11111 aaaaa
0aaaab
1aaaag
b11111 aaaah
0aaaai
1aaaan

#3010000
0aaaag
0aaaan

#3020000
b11010 aaaac
1aaaae
1aaaag
b11010 aaaaj
1aaaal
1aaaan

#3030000
0aaaag
0aaaan

#3040000
1aaaag
1aaaan

#3050000
0aaaag
0aaaan

#3060000
1aaaag
1aaaan

#3070000
0aaaag
0aaaan

#3080000
1aaaag
1aaaan

#3090000
0aaaag
0aaaan

#3100000
1aaaag
1aaaan

#3110000
0aaaag
0aaaan

#3120000
1aaaab
1aaaag
1aaaai
1aaaan

#3130000
0aaaag
0aaaan

#3140000
0aaaab
1aaaag
0aaaai
1aaaan

#3150000
0aaaag
0aaaan

#3160000
1aaaag
1aaaan

#3170000
0aaaag
0aaaan

#3180000
1aaaad
1aaaag
1aaaak
1aaaan

#3190000
0aaaae
0aaaag
0aaaal
0aaaan

#3200000
b100101 aaaaa
0aaaad
1aaaag
b100101 aaaah
0aaaak
1aaaan

#3210000
0aaaag
0aaaan

#3220000
b10110000 aaaac
1aaaae
1aaaag
b10110000 aaaaj
1aaaal
1aaaan

#3230000
0aaaag
0aaaan

#3240000
1aaaag
1aaaan

#3250000
0aaaag
0aaaan

#3260000
1aaaag
1aaaan

#3270000
0aaaag
0aaaan

#3280000
1aaaad
1aaaag
1aaaak
1aaaan

#3290000
0aaaae
0aaaag
0aaaal
0aaaan

#3300000
0aaaad
1aaaag
0aaaak
1aaaan

#3310000
0aaaag
0aaaan

#3320000
1aaaag
1aaaan

#3330000
0aaaag
0aaaan

#3340000
1aaaag
1aaaan

#3350000
0aaaag
0aaaan

#3360000
1aaaab
1aaaag
1aaaai
1aaaan

#3370000
0aaaag
0aaaan

#3380000
b11011100 aaaaa
0aaaab
1aaaag
b11011100 aaaah
0aaaai
1aaaan

#3390000
0aaaag
0aaaan

#3400000
b111010 aaaac
1aaaae
1aaaag
b111010 aaaaj
1aaaal
1aaaan

#3410000
0aaaag
0aaaan

#3420000
1aaaad
1aaaag
1aaaak
1aaaan

#3430000
0aaaae
0aaaag
0aaaal
0aaaan

#3440000
0aaaad
1aaaag
0aaaak
1aaaan

#3450000
0aaaag
0aaaan

#3460000
1aaaag
1aaaan

#3470000
0aaaag
0aaaan

#3480000
1aaaag
1aaaan

#3490000
0aaaag
0aaaan

#3500000
1aaaag
1aaaan

#3510000
0aaaag
0aaaan

#3520000
1aaaag
1aaaan

#3530000
0aaaag
0aaaan

#3540000
1aaaab
1aaaag
1aaaai
1aaaan

#3550000
0aaaag
0aaaan

#3560000
b1101101 aaaaa
0aaaab
1aaaag
b1101101 aaaah
0aaaai
1aaaan

#3570000
0aaaag
0aaaan

#3580000
1aaaag
1aaaan

#3590000
0aaaag
0aaaan

#3600000
1aaaag
1aaaan

#3610000
0aaaag
0aaaan

#3620000
1aaaag
1aaaan

#3630000
0aaaag
0aaaan

#3640000
1aaaab
1aaaag
1aaaai
1aaaan

#3650000
0aaaag
0aaaan

#3660000
0aaaab
1aaaag
0aaaai
1aaaan

#3670000
0aaaag
0aaaan

#3680000
1aaaag
1aaaan

#3690000
0aaaag
0aaaan

#3700000
1aaaag
1aaaan

#3710000
0aaaag
0aaaan

#3720000
1aaaag
1aaaan

#3730000
0aaaag
0aaaan

#3740000
1aaaag
1aaaan

#3750000
0aaaag
0aaaan

#3760000
1aaaag
1aaaan

#3770000
0aaaag
0aaaan

#3780000
1aaaag
1aaaan

#3790000
0aaaag
0aaaan

#3800000
1aaaag
1aaaan

#3810000
0aaaag
0aaaan

#3820000
1aaaag
1aaaan

#3830000
0aaaag
0aaaan

#3840000
1aaaag
1aaaan

#3850000
0aaaag
0aaaan

#3860000
1aaaag
1aaaan

#3870000
0aaaag
0aaaan

#3880000
1aaaag
1aaaan

#3890000
0aaaag
0aaaan

#3900000
1aaaag
1aaaan

#3910000
0aaaag
0aaaan

#3920000
1aaaag
1aaaan

#3930000
0aaaag
0aaaan

#3940000
1aaaag
1aaaan

#3950000
0aaaag
0aaaan

#3960000
1aaaag
1aaaan

#3970000
0aaaag
0aaaan

#3980000
1aaaag
1aaaan

#3990000
0aaaag
0aaaan

#4000000
1aaaag
1aaaan

#4010000
0aaaag
0aaaan

#4020000
1aaaag
1aaaan

#4030000
0aaaag
0aaaan

#4040000
1aaaag
1aaaan

#4050000
0aaaag
0aaaan

#4060000
1aaaag
1aaaan

#4070000
0aaaag
0aaaan

#4080000
1aaaag
1aaaan

#4090000
0aaaag
0aaaan

#4100000
1aaaag
1aaaan

#4110000
0aaaag
0aaaan

#4120000
1aaaag
1aaaan

#4130000
0aaaag
0aaaan

#4140000
1aaaag
1aaaan

#4150000
0aaaag
0aaaan

#4160000
1aaaag
1aaaan

#4170000
0aaaag
0aaaan

#4180000
1aaaag
1aaaan

#4190000
0aaaag
0aaaan

#4200000
1aaaag
1aaaan

#4210000
0aaaag
0aaaan

#4220000
1aaaag
1aaaan

#4230000
0aaaag
0aaaan

#4240000
1aaaag
1aaaan

#4250000
0aaaag
0aaaan

#4260000
1aaaag
1aaaan

#4270000
0aaaag
0aaaan

#4280000
1aaaag
1aaaan

#4290000
0aaaag
0aaaan

#4300000
1aaaag
1aaaan

#4310000
0aaaag
0aaaan

#4320000
1aaaag
1aaaan

#4330000
0aaaag
0aaaan

#4340000
1aaaag
1aaaan

#4350000
0aaaag
0aaaan

#4360000
1aaaag
1aaaan

#4370000
0aaaag
0aaaan

#4380000
1aaaag
1aaaan

#4390000
0aaaag
0aaaan

#4400000
1aaaag
1aaaan

#4410000
0aaaag
0aaaan

#4420000
1aaaag
1aaaan

#4430000
0aaaag
0aaaan

#4440000
1aaaag
1aaaan

#4450000
0aaaag
0aaaan

#4460000
1aaaag
1aaaan

#4470000
0aaaag
0aaaan

#4480000
1aaaag
1aaaan

#4490000
0aaaag
0aaaan

#4500000
1aaaag
1aaaan

#4510000
0aaaag
0aaaan

#4520000
1aaaag
1aaaan

#4530000
0aaaag
0aaaan

#4540000
1aaaag
1aaaan

#4550000
0aaaag
0aaaan

#4560000
1aaaag
1aaaan

#4570000
0aaaag
0aaaan

#4580000
1aaaag
1aaaan

#4590000
0aaaag
0aaaan

#4600000
1aaaag
1aaaan

#4610000
0aaaag
0aaaan

#4620000
1aaaag
1aaaan

#4630000
0aaaag
0aaaan

#4640000
1aaaag
1aaaan

#4650000
0aaaag
0aaaan

#4660000
1aaaag
1aaaan

#4670000
0aaaag
0aaaan

#4680000
1aaaag
1aaaan

#4690000
0aaaag
0aaaan

#4700000
1aaaag
1aaaan

#4710000
0aaaag
0aaaan

#4720000
1aaaag
1aaaan

#4730000
0aaaag
0aaaan

#4740000
1aaaag
1aaaan

#4750000
0aaaag
0aaaan

#4760000
1aaaag
1aaaan

#4770000
0aaaag
0aaaan

#4780000
1aaaag
1aaaan

#4790000
0aaaag
0aaaan

#4800000
1aaaag
1aaaan

#4810000
0aaaag
0aaaan

#4820000
1aaaag
1aaaan

#4830000
0aaaag
0aaaan

#4840000
1aaaag
1aaaan

#4850000
0aaaag
0aaaan

#4860000
1aaaag
1aaaan

#4870000
0aaaag
0aaaan

#4880000
1aaaag
1aaaan

#4890000
0aaaag
0aaaan

#4900000
1aaaag
1aaaan

#4910000
0aaaag
0aaaan

#4920000
1aaaag
1aaaan

#4930000
0aaaag
0aaaan

#4940000
1aaaag
1aaaan

#4950000
0aaaag
0aaaan

#4960000
1aaaag
1aaaan

#4970000
0aaaag
0aaaan

#4980000
1aaaag
1aaaan

#4990000
0aaaag
0aaaan

#5000000
1aaaag
1aaaan

#5010000
0aaaag
0aaaan

#5020000
1aaaag
1aaaan

#5030000
0aaaag
0aaaan

#5040000
1aaaag
1aaaan

#5050000
0aaaag
0aaaan

#5060000
1aaaag
1aaaan

#5070000
0aaaag
0aaaan

#5080000
1aaaag
1aaaan

#5090000
0aaaag
0aaaan

#5100000
1aaaag
1aaaan

#5110000
0aaaag
0aaaan

#5120000
1aaaag
1aaaan

#5130000
0aaaag
0aaaan

#5140000
1aaaag
1aaaan

#5150000
0aaaag
0aaaan

#5160000
1aaaag
1aaaan

#5170000
0aaaag
0aaaan

#5180000
1aaaag
1aaaan

#5190000
0aaaag
0aaaan

#5200000
1aaaag
1aaaan

#5210000
0aaaag
0aaaan

#5220000
1aaaag
1aaaan

#5230000
0aaaag
0aaaan

#5240000
1aaaag
1aaaan

#5250000
0aaaag
0aaaan

#5260000
1aaaag
1aaaan

#5270000
0aaaag
0aaaan

#5280000
1aaaag
1aaaan

#5290000
0aaaag
0aaaan

#5300000
1aaaag
1aaaan

#5310000
0aaaag
0aaaan

#5320000
1aaaag
1aaaan

#5330000
0aaaag
0aaaan

#5340000
1aaaag
1aaaan

#5350000
0aaaag
0aaaan

#5360000
1aaaag
1aaaan

#5370000
0aaaag
0aaaan

#5380000
1aaaag
1aaaan

#5390000
0aaaag
0aaaan

#5400000
1aaaag
1aaaan

#5410000
0aaaag
0aaaan

#5420000
1aaaag
1aaaan

#5430000
0aaaag
0aaaan

#5440000
1aaaag
1aaaan

#5450000
0aaaag
0aaaan

#5460000
1aaaag
1aaaan

#5470000
0aaaag
0aaaan

#5480000
1aaaag
1aaaan

#5490000
0aaaag
0aaaan

#5500000
1aaaag
1aaaan

#5510000
0aaaag
0aaaan

#5520000
1aaaag
1aaaan

#5530000
0aaaag
0aaaan

#5540000
1aaaag
1aaaan

#5550000
0aaaag
0aaaan

#5560000
1aaaag
1aaaan

#5570000
0aaaag
0aaaan

#5580000
1aaaag
1aaaan

#5590000
0aaaag
0aaaan

#5600000
1aaaag
1aaaan

#5610000
0aaaag
0aaaan

#5620000
1aaaag
1aaaan

#5630000
0aaaag
0aaaan

#5640000
1aaaag
1aaaan

#5650000
0aaaag
0aaaan

#5660000
1aaaag
1aaaan

#5670000
0aaaag
0aaaan

#5680000
1aaaag
1aaaan

#5690000
0aaaag
0aaaan

#5700000
1aaaag
1aaaan

#5710000
0aaaag
0aaaan

#5720000
1aaaag
1aaaan

#5730000
0aaaag
0aaaan

#5740000
1aaaag
1aaaan

#5750000
0aaaag
0aaaan

#5760000
1aaaag
1aaaan

#5770000
0aaaag
0aaaan

#5780000
1aaaag
1aaaan

#5790000
0aaaag
0aaaan

#5800000
1aaaag
1aaaan

#5810000
0aaaag
0aaaan

#5820000
1aaaag
1aaaan

#5830000
0aaaag
0aaaan

#5840000
1aaaag
1aaaan

#5850000
0aaaag
0aaaan

#5860000
1aaaag
1aaaan

#5870000
0aaaag
0aaaan

#5880000
1aaaag
1aaaan

#5890000
0aaaag
0aaaan

#5900000
1aaaag
1aaaan

#5910000
0aaaag
0aaaan

#5920000
1aaaag
1aaaan

#5930000
0aaaag
0aaaan

#5940000
1aaaag
1aaaan

#5950000
0aaaag
0aaaan

#5960000
1aaaag
1aaaan

#5970000
0aaaag
0aaaan

#5980000
1aaaag
1aaaan

#5990000
0aaaag
0aaaan

#6000000
1aaaag
1aaaan

#6010000
0aaaag
0aaaan

#6020000
1aaaag
1aaaan

#6030000
0aaaag
0aaaan

#6040000
1aaaag
1aaaan

#6050000
0aaaag
0aaaan

#6060000
1aaaag
1aaaan

#6070000
0aaaag
0aaaan

#6080000
1aaaag
1aaaan

#6090000
0aaaag
0aaaan

#6100000
1aaaag
1aaaan

#6110000
0aaaag
0aaaan

#6120000
1aaaag
1aaaan

#6130000
0aaaag
0aaaan

#6140000
1aaaag
1aaaan

#6150000
0aaaag
0aaaan

#6160000
1aaaag
1aaaan

#6170000
0aaaag
0aaaan

#6180000
1aaaag
1aaaan

#6190000
0aaaag
0aaaan

#6200000
1aaaag
1aaaan

#6210000
0aaaag
0aaaan

#6220000
1aaaag
1aaaan

#6230000
0aaaag
0aaaan

#6240000
1aaaag
1aaaan

#6250000
0aaaag
0aaaan

#6260000
1aaaag
1aaaan

#6270000
0aaaag
0aaaan

#6280000
1aaaag
1aaaan

#6290000
0aaaag
0aaaan

#6300000
1aaaag
1aaaan

#6310000
0aaaag
0aaaan

#6320000
1aaaag
1aaaan

#6330000
0aaaag
0aaaan

#6340000
1aaaag
1aaaan

#6350000
0aaaag
0aaaan

#6360000
1aaaag
1aaaan

#6370000
0aaaag
0aaaan

#6380000
1aaaag
1aaaan

#6390000
0aaaag
0aaaan

#6400000
1aaaag
1aaaan

#6410000
0aaaag
0aaaan

#6420000
1aaaag
1aaaan

#6430000
0aaaag
0aaaan

#6440000
1aaaag
1aaaan

#6450000
0aaaag
0aaaan

#6460000
1aaaag
1aaaan

#6470000
0aaaag
0aaaan

#6480000
1aaaag
1aaaan

#6490000
0aaaag
0aaaan

#6500000
1aaaag
1aaaan

#6510000
0aaaag
0aaaan

#6520000
1aaaag
1aaaan

#6530000
0aaaag
0aaaan

#6540000
1aaaag
1aaaan

#6550000
0aaaag
0aaaan

#6560000
1aaaag
1aaaan

#6570000
0aaaag
0aaaan

#6580000
1aaaag
1aaaan

#6590000
0aaaag
0aaaan

#6600000
1aaaag
1aaaan

#6610000
0aaaag
0aaaan

#6620000
1aaaag
1aaaan

#6630000
0aaaag
0aaaan

#6640000
1aaaag
1aaaan

#6650000
0aaaag
0aaaan

#6660000
1aaaag
1aaaan

#6670000
0aaaag
0aaaan

#6680000
1aaaag
1aaaan

#6690000
0aaaag
0aaaan

#6700000
1aaaag
1aaaan

#6710000
0aaaag
0aaaan

#6720000
1aaaag
1aaaan

#6730000
0aaaag
0aaaan

#6740000
1aaaag
1aaaan

#6750000
0aaaag
0aaaan

#6760000
1aaaag
1aaaan

#6770000
0aaaag
0aaaan

#6780000
1aaaag
1aaaan

#6790000
0aaaag
0aaaan

#6800000
1aaaag
1aaaan

#6810000
0aaaag
0aaaan

#6820000
1aaaag
1aaaan

#6830000
0aaaag
0aaaan

#6840000
1aaaag
1aaaan

#6850000
0aaaag
0aaaan

#6860000
1aaaag
1aaaan

#6870000
0aaaag
0aaaan

#6880000
1aaaag
1aaaan

#6890000
0aaaag
0aaaan

#6900000
1aaaag
1aaaan

#6910000
0aaaag
0aaaan

#6920000
1aaaag
1aaaan

#6930000
0aaaag
0aaaan

#6940000
1aaaag
1aaaan

#6950000
0aaaag
0aaaan

#6960000
1aaaag
1aaaan

#6970000
0aaaag
0aaaan

#6980000
1aaaag
1aaaan

#6990000
0aaaag
0aaaan

#7000000
1aaaag
1aaaan

#7010000
0aaaag
0aaaan

#7020000
1aaaag
1aaaan

#7030000
0aaaag
0aaaan

#7040000
1aaaag
1aaaan

#7050000
0aaaag
0aaaan

#7060000
1aaaag
1aaaan

#7070000
0aaaag
0aaaan

#7080000
1aaaag
1aaaan

#7090000
0aaaag
0aaaan

#7100000
1aaaag
1aaaan

#7110000
0aaaag
0aaaan

#7120000
1aaaag
1aaaan

#7130000
0aaaag
0aaaan

#7140000
1aaaag
1aaaan

#7150000
0aaaag
0aaaan

#7160000
1aaaag
1aaaan

#7170000
0aaaag
0aaaan

#7180000
1aaaag
1aaaan

#7190000
0aaaag
0aaaan

#7200000
1aaaag
1aaaan

#7210000
0aaaag
0aaaan

#7220000
1aaaag
1aaaan

#7230000
0aaaag
0aaaan

#7240000
1aaaag
1aaaan

#7250000
0aaaag
0aaaan

#7260000
1aaaag
1aaaan

#7270000
0aaaag
0aaaan

#7280000
1aaaag
1aaaan

#7290000
0aaaag
0aaaan

#7300000
1aaaag
1aaaan

#7310000
0aaaag
0aaaan

#7320000
1aaaag
1aaaan

#7330000
0aaaag
0aaaan

#7340000
1aaaag
1aaaan

#7350000
0aaaag
0aaaan

#7360000
1aaaag
1aaaan

#7370000
0aaaag
0aaaan

#7380000
1aaaag
1aaaan

#7390000
0aaaag
0aaaan

#7400000
1aaaag
1aaaan

#7410000
0aaaag
0aaaan

#7420000
1aaaag
1aaaan

#7430000
0aaaag
0aaaan

